…
Through the names_to and values_to argument we will tell pivot_longer the column names we want to assign to the columns containing the 
current column names and observations, respectively. The default names are name and value, which are often usable choices. 
In this case a better choice for these two arguments would be year and fertility.

We can also use the pipe like this:

		new_tidy_data <- wide_data %>% 
			pivot_longer(`1960`:`2015`, names_to = "year", values_to = "fertility")
			
We can see that the data have been converted to tidy format with columns year and fertility:


head(new_tidy_data)
#> # A tibble: 6 x 3
#>   country year  fertility
#>   <chr>   <chr>     <dbl>
#> 1 Germany 1960       2.41
#> 2 Germany 1961       2.44
#> 3 Germany 1962       2.47
#> 4 Germany 1963       2.49
#> 5 Germany 1964       2.49
#> # … with 1 more row
…
